
<!DOCTYPE HTML PUBLIC "-//W3C//DTD HTML 4.01 Transitional//EN" "http://www.w3.org/TR/html4/loose.dtd">
<html xmlns:fb="http://ogp.me/ns/fb#">
<head>
    <title>Куртки</title>
    <meta http-equiv="Content-Type" content="text/html; charset=utf-8">
    <meta http-equiv='X-UA-Compatible' content='IE=8'>
    <meta http-equiv='Content-language' content ='ru'>
    <BASE HREF="test1.ru">
    <meta name="description" content="">
    <meta name="keywords" content="">
    <meta name="robots" content="INDEX,FOLLOW">
    <link rel="icon" href="favicon.ico" type="image/x-icon">
    <link rel="shortcut icon" href="favicon.ico" type="image/x-icon">
    <link rel="stylesheet" type="text/css" href="/templates/defaultSchema//style.css">
    <link rel="stylesheet" type="text/css" href="/templates/defaultSchema//jquery-ui.css">
    <link rel="stylesheet" type="text/css" href="/templates/defaultSchema//jcarousel/skins/tango/skin.css">
    <link rel="stylesheet" type="text/css" href="/templates/defaultSchema//jcarousel/skins/tango2/skin.css">
    <script type="text/javascript" src="/templates/defaultSchema//jcarousel/lib/jquery-1.4.2.min.js"></script>
    <script type="text/javascript" src="/templates/defaultSchema//jquery-ui.js"></script>
    <script type="text/javascript" src="/templates/defaultSchema//functions.js"></script>
    <script type="text/javascript" src="/templates/defaultSchema//jcarousel/lib/jquery.jcarousel.min.js"></script>
    <script type="text/javascript" language="javascript" src="/templates/defaultSchema//carouFredSel/jquery.carouFredSel-5.5.0-packed.js"></script>
</head>

<body>
<div id="fb-root"></div>
<script type="text/javascript">
    $(document).ready(function(){
        CheckSearch();
        CheckForHash();
    })
</script>


<div style="margin-top: 8px; margin-right:8px; margin-left: 8px;">
	<div class="page">
		<div class="header_top">
			<!--<div class="header_anons"><h1><a href="#">Сезонное предложение! Сандалии Nike от 1700 р</a></h1></div>-->
			<div class="header_top_left"><a href="/index.php"><img src="/templates/defaultSchema//img/logo.png" /></a></div>
			<div class="header_top_right">
				<div style="text-align: right; padding-right: 9px; padding-top: 2px; font-size: 11px;"><a href="/t/kontakty">Контакты</a> &nbsp;&nbsp;&nbsp; <a href="/t/pomosh">Помощь</a></div>
			</div>
			<div class="header_top_phone">Наш телефон: +7·495·500·6167</div>
			<div class="header_top_basket"><div>
<a href="/b" onmouseover=""><div style="padding: 7px;"><span>Корзина:</span><em>2</em><strong>111 110 р</strong></div></a>
<div id="basket_preview_window"></div>
</div>
<!--ShowBasketInfo();--></div>
			<div class="header_top_search">
				<div class="left_side"><img src="/templates/defaultSchema//img/top_search_left_side.gif" width="26" height="21" border="0" alt=""></div>
				<form id="search_mini_form" method="get" action="/s">
					<input id="search" name="search" type="text" value="название товара, артикул, ...">
					<div class="find_button"><input type=image src="/templates/defaultSchema//img/btn_find.gif" name="sub"></div>
				</form>
				<div class="right_side"><img src="/templates/defaultSchema//img/top_search_right_side.gif" width="9" height="21" border="0" alt=""></div>
			</div>
		</div>
	</div>
</div>
<div class="clear"></div>

<script type="text/javascript">
    $(document).ready(function() {

    	document.onmousemove = function(e) {
    		var mCur = mousePageXY(e);
    		MouseX = mCur.x;
    		MouseY = mCur.y;
    	};

        // open menu's item what select
        var openItemMenu = 139;
        $(".main_cats_main_title b").each(function(){
            if ($(this).attr('cat') == openItemMenu)
                $(this).next().css("display","block");
        });
        // //open
    });
</script>

<div style="margin-right:8px; margin-left: 8px;">
	<div class="page">
		<div class="main_right_side">
			<div class="main_right_side_in" id="ajax_load_div" style="padding: 0 0 0 227px;">
				<div id="ajax_products_place" style="padding-left: 2px;">
				<div class="products_title">
					<div class="title_h1"><h1>Куртки</h1></div>
				</div>

				<div class="product_cell">
					<div class="product_num">1.</div>
					<div><a href="/p/c.-kurtki/eto_testovyiy_tovar3" title="Это тестовый товар3"><img id="product_main_photo" src="/i/width.-213/height.-213/eto_testovyiy_tovar3" width="213" height="213" border="0" alt="Это тестовый товар3" title="Это тестовый товар3"></a></div>
					<span>Adidas</span>
					<strong><a href="/p/c.-kurtki/eto_testovyiy_tovar3" title="Это тестовый товар3">Это тестовый товар3</a></strong>
					<div class="art_rating">
						<div class="code">арт. </div>
						<div class="crating"><span class="star"><span style="width:0%"></span></span></div>
					</div>
					<div class="sizes_price">
						<div class="sizes"><div style="line-height: 13px;">В наличии:<br><a href="javascript:void(0);" onClick="ShowAvSizes('eto_testovyiy_tovar3', '36.5  - 37  - 39  - 40.5  - 41.5 ')">5 размеров</a></div></div>
                        <div class="product_price  oldPrice" style="padding: 0px;" ><span class="oldPriceThrow"><b>10 000р</b></span><span class='priceMain'><em>1 999р</em></span> </div>
                        <!--<div class="product_price  oldPrice" style="padding: 0px; min-width:150px; text-align:right;"><span class='priceMain'><em>1 999</em><i>&thinsp;р</i></span><b>10 000р</b></div>-->
					</div>
					<div class="clear"></div>
					<div class="button_line">
						<div class="button_over" style="">
						<a href="javascript:void(0);" OnClick="ButtonAdd2Basket('eto_testovyiy_tovar3', '3');">Купить</a>
						</div>
					</div>
				</div>

				<div class="already_set_color" style="display: none;"></div>
				</div>
			</div>
		</div>
		<div class="main_left_side">
			<div class="main_left_side_col">
				<div class="main_cats_drop_button">
	<a href="javascript:void(0);" onClick="ToggleMainCatsDrop();">
		<div class="title">Все разделы магазина<img src="/templates/defaultSchema//img/arrow2.gif" alt="" type="2" width="12" border="0" style="top: 9px; position: relative; float: right; right: 20px;"></div>
	</a>
</div>
<div class="main_cats_drop_window">
	<div class="main_cats_drop_window_page">
		<div style="background-color: #330000; height: 3px;"><img src="/templates/defaultSchema//img/d.gif" alt="" width="1" height="3" border="0"></div>
		<div style="height: 4px;"></div>

		<div class="main_cats_main_title" style="">
			<b onclick="toggleThis(this);" cat="139">Одежда</b>
			<span style="display:none;">

			<a href="/c/kurtki">Куртки</a>,
			<a href="/c/vetrovki">Ветровки</a>,
			<a href="/c/sportivnie_kostymi">Спортивные костюмы</a>,
			<a href="/c/bryki">Брюки</a>,
			<a href="/c/futbolki">Футболки</a>,
			<a href="/c/shorti">Шорты</a>,
			<a href="/c/golovnie_ubori">Головные уборы</a>
			</span>
		</div>
		<div class="main_cats_main_title" style="">
			<b onclick="toggleThis(this);" cat="140">Обувь</b>
			<span style="display:none;">

			<a href="/c/dlya_begaobuv">Для бега</a>,
			<a href="/c/dlya_futbolobuv">Для футбола</a>,
			<a href="/c/dlya_voleybolaobuv">Для волейбола</a>,
			<a href="/c/dlya_backetbolaobuv">Для баскетбола</a>,
			<a href="/c/dlya_tennisaobuv">Для тенниса</a>,
			<a href="/c/dlya_borbiobuv">Для борьбы</a>,
			<a href="/c/dlya_hotybiobuv">Для хотьбы</a>
			</span>
		</div>
		<div class="main_cats_main_title" style="">
			<b onclick="toggleThis(this);" cat="141">Аксессуары</b>
			<span style="display:none;">

			<a href="/c/myachi">Мячи</a>,
			<a href="/c/perchatki">Перчатки</a>,
			<a href="/c/shitki">Щитки</a>,
			<a href="/c/nosk">Носки</a>,
			<a href="/c/sumki">Сумки</a>,
			<a href="/c/raznoe">Разное</a>
			</span>
		</div>
		<div class="main_cats_main_title" style="border: 0px;">
			<b onclick="toggleThis(this);" cat="142">Игровая форма</b>
			<span style="display:none;">

			<a href="/c/dlya_futbolform">Для футбола</a>,
			<a href="/c/dlya_voleybolform">Для волейбола</a>,
			<a href="/c/dlya_backetbol">Для баскетбола</a>,
			<a href="/c/dlya_tennisform">Для тенниса</a>,
			<a href="/c/dlya_legkoform">Для легкой атлектики</a>,
			<a href="/c/dlya_borbform">Для борьбы</a>
			</span>
		</div>
	</div>
	<!--<div class="main_cats_drop_window_shadow1">*</div>-->
</div>

				<ul id="left_side_tree">
				<li>
					<h2></h2>
					<ul>
					<!-- BEGIN cat_level1 -->
					<li>
						<a href="/c/odejda">Одежда</a>
						<ul>

							<li>
							<a href="/c/kurtki" class="open">Куртки</a>
							<ul class="minus">

							</ul>
							</li>
							<li>
							<a href="/c/vetrovki" class="">Ветровки</a>
							<ul class="minus">

							</ul>
							</li>
							<li>
							<a href="/c/sportivnie_kostymi" class="">Спортивные костюмы</a>
							<ul class="minus">

							</ul>
							</li>
							<li>
							<a href="/c/bryki" class="">Брюки</a>
							<ul class="minus">

							</ul>
							</li>
							<li>
							<a href="/c/futbolki" class="">Футболки</a>
							<ul class="minus">

							</ul>
							</li>
							<li>
							<a href="/c/shorti" class="">Шорты</a>
							<ul class="minus">

							</ul>
							</li>
							<li>
							<a href="/c/golovnie_ubori" class="">Головные уборы</a>
							<ul class="minus">

							</ul>
							</li>
						</ul>
					</li>
					<!-- END cat_level1 -->
					</ul>
				</li>
				</ul>


								<div class="filters">
                    <!-- BEGIN price_global -->
					<div class="filter_size">Цена:
						<div class="filter_prices">
						от <span id="filter_price_from">1 209</span> до <span id="filter_price_to">17 924</span>
						<div style="height: 10px;"></div>
						<div id="price-range"></div>
						</div>
					</div>
                    <!-- END price_global -->
					<div style="height: 1px;"></div>
                    <!-- BEGIN size_global -->
					<div class="filter_size">Размер:
						<div class="filter_sizes">

						<div style="font-weight: normal; padding-top: 5px;">Одежда (мужская)</div>

							<a href="javascript:void(0)" onClick="FiltersSelectSize('1', 'filter_size_item_0')"><div id="filter_size_item_0" class="filter_size_item ">40</div></a>
							<a href="javascript:void(0)" onClick="FiltersSelectSize('2', 'filter_size_item_1')"><div id="filter_size_item_1" class="filter_size_item ">42</div></a>
							<a href="javascript:void(0)" onClick="FiltersSelectSize('3', 'filter_size_item_2')"><div id="filter_size_item_2" class="filter_size_item ">44</div></a>
							<a href="javascript:void(0)" onClick="FiltersSelectSize('5', 'filter_size_item_3')"><div id="filter_size_item_3" class="filter_size_item ">48</div></a>
							<a href="javascript:void(0)" onClick="FiltersSelectSize('9', 'filter_size_item_4')"><div id="filter_size_item_4" class="filter_size_item ">56</div></a>
							<a href="javascript:void(0)" onClick="FiltersSelectSize('10', 'filter_size_item_5')"><div id="filter_size_item_5" class="filter_size_item ">58</div></a>
						<div style="font-weight: normal; padding-top: 5px;">Обувь (женская)</div>

							<a href="javascript:void(0)" onClick="FiltersSelectSize('65', 'filter_size_item_6')"><div id="filter_size_item_6" class="filter_size_item ">36</div></a>
							<a href="javascript:void(0)" onClick="FiltersSelectSize('66', 'filter_size_item_7')"><div id="filter_size_item_7" class="filter_size_item ">36.5</div></a>
							<a href="javascript:void(0)" onClick="FiltersSelectSize('67', 'filter_size_item_8')"><div id="filter_size_item_8" class="filter_size_item ">37</div></a>
							<a href="javascript:void(0)" onClick="FiltersSelectSize('71', 'filter_size_item_9')"><div id="filter_size_item_9" class="filter_size_item ">39</div></a>
							<a href="javascript:void(0)" onClick="FiltersSelectSize('72', 'filter_size_item_10')"><div id="filter_size_item_10" class="filter_size_item ">39.5</div></a>
							<a href="javascript:void(0)" onClick="FiltersSelectSize('74', 'filter_size_item_11')"><div id="filter_size_item_11" class="filter_size_item ">40.5</div></a>
							<a href="javascript:void(0)" onClick="FiltersSelectSize('76', 'filter_size_item_12')"><div id="filter_size_item_12" class="filter_size_item ">41.5</div></a>
							<a href="javascript:void(0)" onClick="FiltersSelectSize('82', 'filter_size_item_13')"><div id="filter_size_item_13" class="filter_size_item ">44.5</div></a>
						<div style="font-weight: normal; padding-top: 5px;">Одежда (женская)</div>

							<a href="javascript:void(0)" onClick="FiltersSelectSize('12', 'filter_size_item_14')"><div id="filter_size_item_14" class="filter_size_item ">42</div></a>
							<a href="javascript:void(0)" onClick="FiltersSelectSize('13', 'filter_size_item_15')"><div id="filter_size_item_15" class="filter_size_item ">44</div></a>
							<a href="javascript:void(0)" onClick="FiltersSelectSize('14', 'filter_size_item_16')"><div id="filter_size_item_16" class="filter_size_item ">46</div></a>
							<a href="javascript:void(0)" onClick="FiltersSelectSize('15', 'filter_size_item_17')"><div id="filter_size_item_17" class="filter_size_item ">48</div></a>
						</div>
					</div>
                    <!-- END size_global -->
					<div style="height: 1px;"></div>
                    <!-- BEGIN color_global -->
					<div class="filter_size">Цвет:
						<div class="filter_colors">

							<a href="javascript:void(0)"
								onClick="FiltersSelectColor('13', 'filter_color_item_0')"><div
									id="filter_color_item_0" title="Голубой" class="filter_color_item ui-corner-all "><div class="filter_color_item_in ui-corner-all"
										style="background-color: #00FFFF;"></div></div></a>
							<a href="javascript:void(0)"
								onClick="FiltersSelectColor('2', 'filter_color_item_1')"><div
									id="filter_color_item_1" title="Зеленый" class="filter_color_item ui-corner-all "><div class="filter_color_item_in ui-corner-all"
										style="background-color: #008000;"></div></div></a>
							<a href="javascript:void(0)"
								onClick="FiltersSelectColor('3', 'filter_color_item_2')"><div
									id="filter_color_item_2" title="Красный" class="filter_color_item ui-corner-all "><div class="filter_color_item_in ui-corner-all"
										style="background-color: #DD0000;"></div></div></a>
							<a href="javascript:void(0)"
								onClick="FiltersSelectColor('14', 'filter_color_item_3')"><div
									id="filter_color_item_3" title="Лайм" class="filter_color_item ui-corner-all "><div class="filter_color_item_in ui-corner-all"
										style="background-color: #00FF00;"></div></div></a>
							<a href="javascript:void(0)"
								onClick="FiltersSelectColor('17', 'filter_color_item_4')"><div
									id="filter_color_item_4" title="Олива" class="filter_color_item ui-corner-all "><div class="filter_color_item_in ui-corner-all"
										style="background-color: #808000;"></div></div></a>
							<a href="javascript:void(0)"
								onClick="FiltersSelectColor('4', 'filter_color_item_5')"><div
									id="filter_color_item_5" title="Синий" class="filter_color_item ui-corner-all "><div class="filter_color_item_in ui-corner-all"
										style="background-color: #0000FF;"></div></div></a>
							<a href="javascript:void(0)"
								onClick="FiltersSelectColor('12', 'filter_color_item_6')"><div
									id="filter_color_item_6" title="Ультрамарин" class="filter_color_item ui-corner-all "><div class="filter_color_item_in ui-corner-all"
										style="background-color: #000080;"></div></div></a>
						<div class="clear"></div>
						</div>
					</div>
                    <!-- END color_global -->
					<div style="height: 1px;"></div>
                    <!-- BEGIN vendor_global -->
					<div class="filter_size">Производитель:
						<div class="filter_vendors">

							<div class="filter_vendor_item" id="filter_vendor_item_0" style=""><a href="javascript:void(0)" onClick="FiltersSelectVendor('2', 'filter_vendor_item_0')">Adidas</a></div>
							<div class="filter_vendor_item" id="filter_vendor_item_1" style=""><a href="javascript:void(0)" onClick="FiltersSelectVendor('3', 'filter_vendor_item_1')">Reebok</a></div>
						</div>
					</div>
                    <!-- BEGIN vendor_global -->
                    <!-- END vendor_global -->
				</div>

			</div>
		</div>
	</div>
</div>

<div id="dialog-sizes" title="Доступные размеры">
</div>
<script type="text/javascript">
$(function() {
	$( "#dialog:ui-dialog" ).dialog( "destroy" );
	$( "#dialog-sizes" ).dialog({
		autoOpen: false,
		height: 126,
		width: 277,
		modal: true,
		resizable: false
	});
	$( "#price-range" ).slider({
			range: true,
			min: 123.00,
			max: 22222.00,
			values: [ 1209, 17924 ],
			slide: function( event, ui ) {
				$( "#filter_price_from" ).html(Number_Format(ui.values[ 0 ]));
				$( "#filter_price_to" ).html(Number_Format(ui.values[ 1 ]));
			},
			change: FiltersSelectPrice
		});
});
var	script_find			=	'kurtki';
var	script_price_min	=	'1209';
var	script_price_max	=	'17924';
var	script_size			=	'';
var	script_color		=	'';
var	script_vendor		=	'';
var script_url			=	'/c';
    if (typeof(size_array) == undefined)    {
    size_array.push('');        }
</script>

<script type="text/javascript">

	$(function() {
		$( "#add_to_basket" ).draggable();
	});
	CheckForHash();
</script>

<div class="clear"></div>
<div>
	<div class="page">
		<div class="footer">
		<div>
			<div><img src="/templates/defaultSchema//img/bottom_left_logo.gif" width="221" height="98" border="0" alt="" title=""></div>
		</div>
		<div>
			<div class="footer_links"><a href="/t/o_magazine">О магазине</a> • <a href="/t/vozvrat_tovara">Возврат товара</a> • <a href="/t/pravovaya_informaciya">Правовая информация</a></div>
			<div class="footer_copyright">© Sportform, 2012.</div>
		</div>
		</div>
	</div>
</div>


<div id="add_to_basket" class="ui-corner-top" style="">
	<div class="add_to_basket_page ui-corner-top">
		<div id="loading">
			<img src="/templates/defaultSchema//img/loading.gif" width="235" height="235" border="0" style="padding-top: 18px;" alt="загрузка">
		</div>
	</div>
	<div class="add_to_basket_page_shadow1">*</div>
	<!--
	<div class="add_to_basket_page_shadow">
		<img src="templates/defaultSchema//img/2basket_shadow_top.gif" width="301" height="17" border="0" style="display: block;">
		<img src="templates/defaultSchema//img/2basket_shadow_bottom.gif" width="301" height="13" border="0" style="display: block; padding-top: 265px;">
	</div>
	-->
</div>
<div class="add_to_basket_page_all_shadow"></div>


<div style="position:absolute;top:-1000px;left:-1000px;" class="add_to_basket_page_ok"></div>

</body>
</html>
